<svg width="28" height="28" viewBox="0 0 28 28" fill="none" xmlns="http://www.w3.org/2000/svg">
<circle cx="14" cy="14" r="13" transform="rotate(-90 14 14)" fill="#D8D5D5" stroke="white" stroke-width="2"/>
<path d="M19 12.8571L14 16.8571L9 12.8571" stroke="white" stroke-width="2" stroke-linecap="round" stroke-linejoin="round"/>
</svg>
